[
  {
    "cluster_environment_type": "",
    "description": ""
  },
  {
    "cluster_environment_type": "HML",
    "description": "Homologacao"
  },
  {
    "cluster_environment_type": "TI",
    "description": "Teste Integrado"
  },
  {
    "cluster_environment_type": "DEV",
    "description": "Desenvolvimento"
  }
]